<?xml version="1.0" ?><!DOCTYPE svg  PUBLIC '-//W3C//DTD SVG 1.1//EN'
        'http://www.w3.org/Graphics/SVG/1.1/DTD/svg11.dtd'>
<svg viewBox="0 0 60 60" width="30" height="30" id="1" version="1.1"
     xml:space="preserve" xmlns="http://www.w3.org/2000/svg" xmlns:xlink="http://www.w3.org/1999/xlink">
   <path d="M 60 60 L 30 30" stroke="black" stroke-width="2"/>
    <path d="M 60 0 L 30 30" stroke="black" stroke-width="2"/>
</svg>